<?xml version="1.0" encoding="UTF-8"?>
<svg width="25px" height="24px" viewBox="0 0 25 24" version="1.1" xmlns="http://www.w3.org/2000/svg" xmlns:xlink="http://www.w3.org/1999/xlink">
    <!-- Generator: sketchtool 57 (101010) - https://sketch.com -->
    <title>2E699BA0-5B6A-4CAF-B1B0-81FF559DBD36</title>
    <desc>Created with sketchtool.</desc>
    <g id="Website" stroke="none" stroke-width="1" fill="none" fill-rule="evenodd">
        <g id="school-profile-" transform="translate(-740.000000, -2715.000000)" stroke="#252627">
            <g id="car-parking" transform="translate(740.000000, 2715.000000)">
                <circle id="Oval" stroke-width="1.3" cx="5.97826087" cy="20.5625277" r="2.0673913"></circle>
                <circle id="Oval-Copy" stroke-width="1.3" cx="19.293251" cy="20.4656589" r="2.0673913"></circle>
                <path d="M0.65,19.3690494 C1.11305216,19.3690494 1.7995239,19.3690494 3.90625,19.3690494 C7.8125,19.3690494 7.8125,19.3690494 12.5,19.3690494 C17.1875,19.3690494 17.1875,19.3690494 21.09375,19.3690494 C23.2004761,19.3690494 23.8869478,19.3690494 24.35,19.3690494 C24.35,16.6119031 24.35,16.3959582 24.35,13.2364408 C24.35,11.9385716 23.2978692,10.8864408 22,10.8864408 L3,10.8864408 C1.70213084,10.8864408 0.65,11.9385716 0.65,13.2364408 C0.65,16.3959582 0.65,16.6119031 0.65,19.3690494 Z" id="Combined-Shape" stroke-width="1.3" fill="#87FBAC"></path>
                <path d="M3.97551341,11.3065217 C4.3306221,11.3065217 4.90467438,11.3065217 6.14809783,11.3065217 C9.03532609,11.3065217 9.03532609,11.3065217 12.5,11.3065217 C15.9646739,11.3065217 15.9646739,11.3065217 18.8519022,11.3065217 C20.1020411,11.3065217 20.6755591,11.3065217 21.0302211,11.3065217 C20.8888194,9.67867288 20.8685691,9.44554579 20.6912931,7.40470335 C20.6627019,7.07555562 20.6627019,7.07555562 20.6341108,6.74640788 C20.462564,4.77152148 20.462564,4.77152148 20.2910172,2.79663509 C20.1855231,1.58216262 19.1688789,0.65 17.9498332,0.65 L7.12482166,0.65 C5.91300683,0.65 4.89989615,1.57146871 4.78534468,2.77785718 C4.56599824,5.08788426 4.56599824,5.08788426 4.34665181,7.39791134 C4.15249478,9.44265848 4.13019809,9.67747408 3.97551341,11.3065217 Z" id="Combined-Shape-Copy-2" stroke-width="1.3" fill="#C2F9FF"></path>
                <rect id="Rectangle" x="3.76086957" y="13.9973103" width="2.26086957" height="2.26086957" rx="1"></rect>
                <rect id="Rectangle-Copy" x="18.9782609" y="13.9973103" width="2.26086957" height="2.26086957" rx="1"></rect>
                <circle id="Oval" stroke-width="1.3" fill="#FFE47F" cx="10.8695652" cy="8.69565217" r="2.61086957"></circle>
            </g>
        </g>
    </g>
</svg>