<?xml version="1.0" encoding="UTF-8"?>
<svg width="1440px" height="673px" viewBox="0 0 1440 673" version="1.1" xmlns="http://www.w3.org/2000/svg" xmlns:xlink="http://www.w3.org/1999/xlink">
    <!-- Generator: sketchtool 57 (101010) - https://sketch.com -->
    <title>6C0790F9-0353-474A-B127-2CF9C294D5DD</title>
    <desc>Created with sketchtool.</desc>
    <g id="landing" stroke="none" stroke-width="1" fill="none" fill-rule="evenodd">
        <g id="Search-options" transform="translate(0.000000, -2497.000000)" fill="#113E98">
            <g id="Group-4" transform="translate(-176.000000, 2497.000000)">
                <path d="M0,502.458906 C50.2174497,541.458055 107.64698,560.957629 172.288591,560.957629 C269.251007,560.957629 393.45906,447.966945 504.845638,492.842677 C616.232215,537.71841 706.783893,722.029455 965.61745,618.655 C1224.45101,515.280544 1294.96913,635.483399 1519.34497,668.338847 C1668.92886,690.242478 1759.48054,634.949164 1791,502.458906 L1791,0 L0,0 L0,502.458906 Z" id="footer-bg" transform="translate(895.500000, 336.500000) scale(-1, -1) translate(-895.500000, -336.500000) "></path>
            </g>
        </g>
    </g>
</svg>