<?xml version="1.0" encoding="UTF-8"?>
<svg width="28px" height="28px" viewBox="0 0 28 28" version="1.1" xmlns="http://www.w3.org/2000/svg" xmlns:xlink="http://www.w3.org/1999/xlink">
    <!-- Generator: sketchtool 57 (101010) - https://sketch.com -->
    <title>0EDCA4C4-6A32-497E-90FC-25A2C054A4D6</title>
    <desc>Created with sketchtool.</desc>
    <g id="Website" stroke="none" stroke-width="1" fill="none" fill-rule="evenodd">
        <g id="school-profile-" transform="translate(-449.000000, -2370.000000)" fill-rule="nonzero">
            <g id="indoor-play-area" transform="translate(450.000000, 2371.000000)">
                <path d="M9.76548816,26 L1.23451184,26 C0.520921181,26 0,25.6226355 0,25.1042001 L0,15.8957999 C0,15.3773645 0.520921181,15 1.23451184,15 L9.76548816,15 C10.4790788,15 11,15.3773645 11,15.8957999 L11,25.1042001 C11,25.6226355 10.4826468,26 9.76548816,26 Z" id="Path" stroke="#191919" stroke-width="1.3" fill="#87FBAC"></path>
                <path d="M24.7675762,26 L16.2359551,26 C15.529695,26 15,25.5881792 15,25.0238322 L15,14.9799809 C15,14.4118208 15.5191011,14 16.2359551,14 L24.7675762,14 C25.4738363,14 26,14.4118208 26,14.9799809 L26,25.0238322 C26,25.5881792 25.4808989,26 24.7675762,26 Z" id="Path" stroke="#191919" stroke-width="1.3" fill="#FFE47F"></path>
                <path d="M17.7665574,11 L9.23704918,11 C8.5157377,11 8,10.6437824 8,10.1058938 L8,0.894106218 C8,0.374028497 8.51934426,0 9.23704918,0 L17.7665574,0 C18.4878689,0 19,0.356217617 19,0.894106218 L19,10.1058938 C19,10.6259715 18.4806557,11 17.7665574,11 Z" id="Path" stroke="#191919" stroke-width="1.3" fill="#F17E7E"></path>
                <path d="M5.5,24 C3.56700338,24 2,22.4329966 2,20.5 C2,18.5670034 3.56700338,17 5.5,17 C7.43299662,17 9,18.5670034 9,20.5 C8.99748279,22.431953 7.431953,23.9974828 5.5,24 Z M5.5,18.3707572 C4.63880167,18.3707572 3.86240247,18.8895305 3.53283614,19.685174 C3.20326981,20.4808176 3.38543878,21.3966429 3.99439796,22.005602 C4.60335714,22.6145612 5.51918244,22.7967302 6.31482595,22.4671639 C7.11046946,22.1375975 7.62924282,21.3611983 7.62924282,20.5 C7.62672964,19.3250942 6.67490577,18.3732704 5.5,18.3707572 L5.5,18.3707572 Z" id="Shape" fill="#191919"></path>
                <path d="M23.3576411,22.8333331 L17.6416921,22.8333331 C17.4125111,22.8334707 17.2006723,22.7188251 17.0860181,22.5326059 C16.971364,22.3463868 16.9713248,22.1169043 17.0859154,21.9306507 L19.9503027,17.3008943 C20.0649299,17.114581 20.2768249,16.9998623 20.5060794,17.0000001 C20.7348661,17.0014913 20.9459602,17.1157763 21.061856,17.3008943 L23.9134178,21.9386745 C24.0288607,22.1246439 24.0288607,22.3544932 23.9134178,22.5404626 C23.7954061,22.7225002 23.5847016,22.8335323 23.3576411,22.8333331 Z M18.7617958,21.6297566 L22.2460878,21.6297566 L20.5060794,18.7973407 L18.7617958,21.6297566 Z" id="Shape" fill="#191919"></path>
                <path d="M16.2818057,9 L10.7181943,9 C10.3215465,9 10,8.67845348 10,8.28180575 L10,2.71819425 C10,2.32154652 10.3215465,2 10.7181943,2 L16.2818057,2 C16.6784535,2 17,2.32154652 17,2.71819425 L17,8.28180575 C17,8.67845348 16.6784535,9 16.2818057,9 L16.2818057,9 Z M11.4363885,7.56361149 L15.5636115,7.56361149 L15.5636115,3.43638851 L11.4363885,3.43638851 L11.4363885,7.56361149 Z" id="Shape" fill="#191919"></path>
            </g>
        </g>
    </g>
</svg>