<svg id="undraw_phone_call_grmk" xmlns="http://www.w3.org/2000/svg" width="135.034" height="82.463" viewBox="0 0 135.034 82.463">
  <path id="Path_2237" data-name="Path 2237" d="M414.488,250.01a12.787,12.787,0,0,1-2.511-4.594c-1.033-2.929-2.076-8.038-1.175-15.738a31.4,31.4,0,0,0-7.135-23.978l.259-.249a27.574,27.574,0,0,1,4.276,6.543,32.153,32.153,0,0,1,2.957,17.726c-1.7,14.564,3.53,19.983,3.583,20.036Z" transform="translate(-363.425 -198.192)" fill="#f2f2f2"/>
  <circle id="Ellipse_33" data-name="Ellipse 33" cx="2.334" cy="2.334" r="2.334" transform="translate(35.22 2.593)" fill="#f2f2f2"/>
  <circle id="Ellipse_34" data-name="Ellipse 34" cx="2.334" cy="2.334" r="2.334" transform="translate(44.416 9.22)" fill="#f2f2f2"/>
  <circle id="Ellipse_35" data-name="Ellipse 35" cx="2.334" cy="2.334" r="2.334" transform="translate(40.895 15.995)" fill="#f2f2f2"/>
  <circle id="Ellipse_36" data-name="Ellipse 36" cx="2.334" cy="2.334" r="2.334" transform="translate(47.976 19.256)" fill="#f2f2f2"/>
  <circle id="Ellipse_37" data-name="Ellipse 37" cx="2.334" cy="2.334" r="2.334" transform="translate(42.089 28.457)" fill="#f2f2f2"/>
  <path id="Path_2238" data-name="Path 2238" d="M484.593,456.982s-3.631-5.029,2.15-10.876Z" transform="translate(-432.14 -405.416)" fill="#f2f2f2"/>
  <path id="Path_2239" data-name="Path 2239" d="M406.5,503.095s-2.481-5.684-10.457-3.683Z" transform="translate(-356.861 -450.948)" fill="#f2f2f2"/>
  <path id="Path_2240" data-name="Path 2240" d="M798.154,279.06c-.01-.118-.218-2.94,1.6-7.671,1.665-4.34,5.433-11.172,13.931-19.072a46.979,46.979,0,0,0,15.134-34.242l.537-.032a41.254,41.254,0,0,1-1.476,11.6,48.117,48.117,0,0,1-13.829,23.066c-16.071,14.94-15.366,26.193-15.358,26.3Z" transform="translate(-703.098 -209.036)" fill="#f2f2f2"/>
  <circle id="Ellipse_38" data-name="Ellipse 38" cx="3.493" cy="3.493" r="3.493" transform="translate(121.663 0)" fill="#f2f2f2"/>
  <circle id="Ellipse_39" data-name="Ellipse 39" cx="3.493" cy="3.493" r="3.493" transform="translate(125.712 16.473)" fill="#f2f2f2"/>
  <circle id="Ellipse_40" data-name="Ellipse 40" cx="3.493" cy="3.493" r="3.493" transform="translate(115.127 20.775)" fill="#f2f2f2"/>
  <circle id="Ellipse_41" data-name="Ellipse 41" cx="3.493" cy="3.493" r="3.493" transform="translate(120.03 31.361)" fill="#f2f2f2"/>
  <circle id="Ellipse_42" data-name="Ellipse 42" cx="3.493" cy="3.493" r="3.493" transform="translate(104.397 36.133)" fill="#f2f2f2"/>
  <path id="Path_2241" data-name="Path 2241" d="M811.384,601.033s.742-9.252,13-10.306Z" transform="translate(-714.501 -529.946)" fill="#f2f2f2"/>
  <path id="Path_2242" data-name="Path 2242" d="M732.56,561.12s2.687-8.884-8.341-14.342Z" transform="translate(-639.444 -492.103)" fill="#f2f2f2"/>
  <path id="Path_2243" data-name="Path 2243" d="M195.5,540.164a13.836,13.836,0,0,1-5.153,6.971,11.912,11.912,0,0,1,4.217-15.588A13.836,13.836,0,0,1,195.5,540.164Z" transform="translate(-178.628 -478.986)" fill="#60b947"/>
  <path id="Path_2244" data-name="Path 2244" d="M156.983,540.164a13.836,13.836,0,0,0,5.153,6.971,11.912,11.912,0,0,0-4.217-15.588A13.836,13.836,0,0,0,156.983,540.164Z" transform="translate(-150.709 -478.986)" fill="#60b947"/>
  <path id="Path_2245" data-name="Path 2245" d="M121.984,566.018a13.836,13.836,0,0,1,3.586,7.892A11.912,11.912,0,0,1,114,562.646,13.837,13.837,0,0,1,121.984,566.018Z" transform="translate(-113.998 -505.766)" fill="#3f3d56"/>
  <path id="Path_2246" data-name="Path 2246" d="M200.876,566.018a13.836,13.836,0,0,0-3.586,7.892,11.912,11.912,0,0,0,11.571-11.264A13.837,13.837,0,0,0,200.876,566.018Z" transform="translate(-185.719 -505.766)" fill="#3f3d56"/>
  <rect id="Rectangle_1519" data-name="Rectangle 1519" width="133.854" height="0.311" transform="translate(1.18 77.398)" fill="#2f2e41"/>
  <path id="Path_2247" data-name="Path 2247" d="M404.2,353.778s-1.389-1.389-4.584-1.111c0,0-30.841-3.2-31.536,2.5s-.834,9.03.972,10.28c0,0,5.9,5.349,2.848,10.072l-1.667,2.778,65.433-.556s.695-10.141,2.778-12.086,2.778-12.225,0-12.5S403.439,351.347,404.2,353.778Z" transform="translate(-332.372 -324.188)" fill="#451b7d"/>
  <path id="Path_2248" data-name="Path 2248" d="M298.035,447.669s-19.588,4.584-11.809,13.2l1.25,1.25-.556,19.171h90.3l.972-18.755,1.111-2.223s6.921-8.3-13.071-11.3l-3.6,9.082-60.848-.417S301.369,447.391,298.035,447.669Z" transform="translate(-260.727 -406.757)" fill="#451b7d"/>
  <rect id="Rectangle_1520" data-name="Rectangle 1520" width="5.696" height="4.307" transform="translate(27.861 73.281)" fill="#3f3d56"/>
  <rect id="Rectangle_1521" data-name="Rectangle 1521" width="5.696" height="4.307" transform="translate(109.826 73.281)" fill="#3f3d56"/>
  <path id="Path_2249" data-name="Path 2249" d="M403.1,496.732s-13.6-9.655-30.548.069l-5,7.224.972,5.974s35.148.556,35.564-3.2S403.1,496.732,403.1,496.732Z" transform="translate(-332.323 -445.332)" fill="#3f3d56"/>
  <path id="Path_2250" data-name="Path 2250" d="M660.2,502.654s-23.86-7.641-31.032,0l.886,10.975s34.87,2.64,35.425.834a31.549,31.549,0,0,0,.833-5Z" transform="translate(-557.602 -451.184)" fill="#3f3d56"/>
  <path id="Path_2251" data-name="Path 2251" d="M434.926,497.025s-23.86-7.641-31.032,0l.02.245c-.024-.114-.037-.175-.037-.175a30.505,30.505,0,0,0-31.327-.07l-5,7.224.972,5.974s34.034.724,36.221-2.7l.038.476s34.87,2.64,35.425.833a31.551,31.551,0,0,0,.833-5Z" transform="translate(-332.324 -445.555)" fill="#40157a" opacity="0.83"/>
  <path id="Path_2252" data-name="Path 2252" d="M386.548,367.62A65.879,65.879,0,0,0,405.58,364.7a54.48,54.48,0,0,0,3.334,18.755c-6.573-1.194-13.244-.012-20.005,3.334C390.124,380.678,389.074,374.251,386.548,367.62Z" transform="translate(-348.684 -335.321)" fill="#60b947"/>
  <path id="Path_2253" data-name="Path 2253" d="M744.915,375.62a65.881,65.881,0,0,1-19.032-2.917,54.479,54.479,0,0,1-3.334,18.755c6.573-1.194,13.244-.013,20.005,3.334C741.339,388.678,742.388,382.251,744.915,375.62Z" transform="translate(-638.006 -342.21)" fill="#60b947"/>
  <path id="Path_2254" data-name="Path 2254" d="M567.313,364.343a4.7,4.7,0,0,1,1.287-.645,32.81,32.81,0,0,1,9.067-1.974c2.7-.191,5.618.036,7.724,1.73a2.653,2.653,0,0,1,.784.913,3.343,3.343,0,0,1,.1,1.861,2.1,2.1,0,0,1-.18.7,1.574,1.574,0,0,1-1.587.664c-.606-.065-1.175-.321-1.772-.44a7.925,7.925,0,0,0-1.12-.114l-3.749-.2a27.3,27.3,0,0,0-6.98.22,6.952,6.952,0,0,0-2.017.695c-.522.293-.874.714-1.359.172C566.659,366.971,566.188,365.222,567.313,364.343Z" transform="translate(-503.766 -332.708)" fill="#2f2e41"/>
  <path id="Path_2255" data-name="Path 2255" d="M606.769,387.227s5.042-2.26,6.955.348-1.043,1.565-1.043,1.565l-3.3,1.043-3.651-.7Z" transform="translate(-537.414 -353.934)" fill="#f2f2f2"/>
  <path id="Path_2256" data-name="Path 2256" d="M615.112,371.272s.7,3.3.174,4.173,2.956,2.086,2.956,2.086l3.3-1.391s-.869-5.39,0-6.433Z" transform="translate(-545.495 -339.63)" fill="#ffb9b9"/>
  <path id="Path_2257" data-name="Path 2257" d="M615.112,371.272s.7,3.3.174,4.173,2.956,2.086,2.956,2.086l3.3-1.391s-.869-5.39,0-6.433Z" transform="translate(-545.495 -339.63)" opacity="0.1"/>
  <path id="Path_2258" data-name="Path 2258" d="M580.14,644.981a19.016,19.016,0,0,1,1.149,3.011.245.245,0,0,0,.3.2l3.093,0c.382,0,.894-.123.89-.5,0-.268-.277-.435-.481-.609a4.153,4.153,0,0,1-.948-1.986,6.735,6.735,0,0,0-2.507-3.367,1.464,1.464,0,0,0-.536-.265,1.49,1.49,0,0,0-.588.032c-.543.109-2.57.484-2.187,1.274.165.34.776.694,1.032,1.012A7.255,7.255,0,0,1,580.14,644.981Z" transform="translate(-513.781 -573.616)" fill="#575a89"/>
  <path id="Path_2259" data-name="Path 2259" d="M655.013,630.153a7.039,7.039,0,0,1-.364.669c-.448.739-.977,1.428-1.394,2.185a3.608,3.608,0,0,0-.508,1.521,1.69,1.69,0,0,0,.59,1.437,2.169,2.169,0,0,0,1.622.277,7.839,7.839,0,0,1,1.675-.2c-.19-1.072.715-2.016.941-3.081.064-.3.073-.609.158-.9a4.425,4.425,0,0,1,.35-.774,10,10,0,0,0,.945-2.786,16.615,16.615,0,0,0-3.009-.081C655.208,628.6,655.327,629.481,655.013,630.153Z" transform="translate(-577.9 -562.376)" fill="#575a89"/>
  <path id="Path_2260" data-name="Path 2260" d="M512.067,498.818a4.693,4.693,0,0,0-.053,4.238c.556,1.36,1.44,2.562,2.045,3.9.386.853.656,1.758,1.091,2.587a21.067,21.067,0,0,1,1.684,3.034,10.513,10.513,0,0,0,.656,2.111,6.482,6.482,0,0,0,.768.953,8.8,8.8,0,0,1,1.77,3.162,3.151,3.151,0,0,1,2.408-1.9,9.294,9.294,0,0,1,3.193.079,13.419,13.419,0,0,1-1.541-2.875,28.848,28.848,0,0,1-.671-3.088,25.074,25.074,0,0,0-2.473-5.976l5.118-.406a19.937,19.937,0,0,1,2.515-.093c1.321.062,2.615.386,3.929.536a6.7,6.7,0,0,0,3.875-.5,18.57,18.57,0,0,0-3.332,10.967,4.246,4.246,0,0,1,6.427,1.517c2.006-2.741,1.767-6.557,3.357-9.558.327-.617.727-1.192,1.08-1.795a26.468,26.468,0,0,0,1.707-3.771,5.093,5.093,0,0,0,.466-3.547,3.7,3.7,0,0,0-.76-1.168,5.114,5.114,0,0,0-3.558-1.79c-2.095-.048-3.825,1.5-5.663,2.512a13.03,13.03,0,0,1-7.151,1.483,33.857,33.857,0,0,1-7.34-1.733,34.907,34.907,0,0,0-3.663-.945,6.846,6.846,0,0,0-3.03.285A4.606,4.606,0,0,0,512.067,498.818Z" transform="translate(-456.307 -447.886)" fill="#2f2e41"/>
  <path id="Path_2261" data-name="Path 2261" d="M608.022,324.859a5.22,5.22,0,0,1-5.216,5.216,5.091,5.091,0,0,1-.927-.083,5.216,5.216,0,1,1,6.143-5.133Z" transform="translate(-530.408 -296.522)" fill="#ffb9b9"/>
  <path id="Path_2262" data-name="Path 2262" d="M578.21,392.322a6.132,6.132,0,0,1,1.3.782c.348.348,1.391,2.26,3.13,1.043s1.913-1.913,2.434-1.913,1.217,1.043,1.217,1.043l4.782,14.344a20.028,20.028,0,0,1-4.434,3.738c-2.782,1.739-6.086,2.608-7.65,1.913s-4.521-1.217-5.042-2.608-1.391-5.564-1.391-5.564l2.434-10.606Z" transform="translate(-508.854 -359.029)" fill="#f2f2f2"/>
  <path id="Path_2263" data-name="Path 2263" d="M560.871,400.07a6.828,6.828,0,0,0,.466-2.647,16.046,16.046,0,0,0-.071-2.678c-.154-1.163-.533-2.284-.772-3.432a14.522,14.522,0,0,1-.3-3.063,2.494,2.494,0,0,1,.293-1.357,4.336,4.336,0,0,0,.569-.8c.219-.6-.322-1.236-.914-1.485a3.6,3.6,0,0,0-2.251-.09,10.709,10.709,0,0,0-2.117.866,4.844,4.844,0,0,0-1.383.894,4.52,4.52,0,0,0-.969,2.089,4.275,4.275,0,0,0-.173,1.841c.189.992,1,1.737,1.429,2.65a5.8,5.8,0,0,1,.268,3.451c-.2,1.155-.552,2.285-.661,3.452a4.644,4.644,0,0,0,.789,3.338c.3.373,1.107,1.258,1.652,1.158.429-.079,1.05-1.022,1.4-1.321A9.442,9.442,0,0,0,560.871,400.07Z" transform="translate(-492.187 -352.27)" fill="#2f2e41"/>
  <path id="Path_2264" data-name="Path 2264" d="M656.563,377.524a5.229,5.229,0,0,1-.915,2.721,19.057,19.057,0,0,0-1.464,2.51,5.753,5.753,0,0,0-.268,3.539,11.473,11.473,0,0,0,.384,1.184l.953,2.613a4.537,4.537,0,0,0,.552,1.16,3.75,3.75,0,0,0,.751.722,7.008,7.008,0,0,0,2.45,1.278,4.143,4.143,0,0,0,2.724-.155,39.412,39.412,0,0,1,1.692-10.447,3.79,3.79,0,0,0,.252-1.922,3.625,3.625,0,0,0-1.283-1.74c-1.667-1.5-3.5-3.07-5.733-3.272C655.365,375.6,656.552,376.823,656.563,377.524Z" transform="translate(-578.769 -344.798)" fill="#2f2e41"/>
  <path id="Path_2265" data-name="Path 2265" d="M579.756,516.9c.132.259.215.541.345.8a4.483,4.483,0,0,0,.709.954c1.163,1.289,2.584,2.573,4.318,2.651a1.186,1.186,0,0,0,.509-.064,1.009,1.009,0,0,0,.542-.774,3.293,3.293,0,0,0-.472-1.961,8.937,8.937,0,0,0-2.578-3.567,4.838,4.838,0,0,0-4.174-.628c-.629.194-1.672.532-.839,1.106A4.288,4.288,0,0,1,579.756,516.9Z" transform="translate(-513.372 -463.958)" fill="#ffb9b9"/>
  <path id="Path_2266" data-name="Path 2266" d="M577.465,681.853c-.518.7-.414,1.711-.874,2.456-.4.645-1.148.984-1.646,1.555a4.16,4.16,0,0,0-.423.609,2.6,2.6,0,0,0-.382,2.542,2.73,2.73,0,0,0,1.84,1.037,6.75,6.75,0,0,0,2.719.218,2.708,2.708,0,0,0,2.1-1.571,6.045,6.045,0,0,1,.225-.635c.489-.962,2.022-.973,2.522-1.929a2.512,2.512,0,0,0-.293-2.162l-.983-2.087c-.326-.693-1.648-.294-2.337-.46C579.04,681.209,578.111,680.971,577.465,681.853Z" transform="translate(-510.038 -607.871)" fill="#2f2e41"/>
  <path id="Path_2267" data-name="Path 2267" d="M642.984,670.577a2.8,2.8,0,0,0-.889,1.218,13.313,13.313,0,0,0-.815,3.563,4.313,4.313,0,0,0-.028,1.462,2.929,2.929,0,0,0,2.071,2.021,8.634,8.634,0,0,0,3.011.206,2.155,2.155,0,0,0,.946-.192,1.467,1.467,0,0,0,.619-1.511,4.3,4.3,0,0,0-.707-1.576,4.316,4.316,0,0,1-.708-1.575c-.148-.964.269-2.379-.323-3.251S643.777,670.022,642.984,670.577Z" transform="translate(-567.959 -598.388)" fill="#2f2e41"/>
  <path id="Path_2268" data-name="Path 2268" d="M597.417,305.321a1.324,1.324,0,0,0-.574-.75,3.035,3.035,0,0,0-.121-.989c-.316-.934-1.064-.88-1.77-1.293-.306-.179-.287-.338-.447-.632a2.345,2.345,0,0,0-.9-.922,3.251,3.251,0,0,0-1.467-.622c-1.126-.077-1.99.983-3.066,1.322-.474.15-.984.156-1.461.3a1.344,1.344,0,0,0-1.024.972c-.033.227.025.461-.008.688-.066.452-.463.768-.728,1.14a2.807,2.807,0,0,0-.05,2.876,4.022,4.022,0,0,0,.338.529,3.256,3.256,0,0,0,.357,1.209,6.028,6.028,0,0,0,2.12,2.117,5,5,0,0,1-.125-.9.622.622,0,0,1,.038-.3c.094-.2.342-.249.531-.356a1.343,1.343,0,0,0,.557-1.166c.011-.451-.084-.9-.037-1.35a.738.738,0,0,1,.253-.543.873.873,0,0,1,.476-.114,5.376,5.376,0,0,0,2.35-.427,3.484,3.484,0,0,1,.731-.37,1.556,1.556,0,0,1,1.564.781c.347.516.52,1.131.84,1.664a1.69,1.69,0,0,0,1.492.946.249.249,0,0,0,.185-.082.278.278,0,0,0,.034-.157l.035-2.366A3.58,3.58,0,0,0,597.417,305.321Z" transform="translate(-519.933 -279.701)" fill="#2f2e41"/>
  <path id="Path_2269" data-name="Path 2269" d="M532.431,413.107a9.468,9.468,0,0,0-1.345,2.284c-.161.5-.211,1.02-.327,1.528-.388,1.693-1.508,3.2-1.62,4.929a2.344,2.344,0,0,0,.165,1.132,2.812,2.812,0,0,0,1.824,1.3,5.81,5.81,0,0,1,2.107.9,6.476,6.476,0,0,1,.8.926,7.732,7.732,0,0,0,3.694,2.527c-.115-.791-.169-1.745.464-2.234a2.29,2.29,0,0,1,1.231-.349l2.037-.176a26.184,26.184,0,0,0-4.466-3.479,3.249,3.249,0,0,1-1.434-1.325,3.2,3.2,0,0,1-.162-1.223,30.11,30.11,0,0,0-.384-4.523c-.168-1.039-.39-2.068-.644-3.089-.071-.287-.493-1.572-1.011-1.271-.122.071-.236.886-.308,1.056A6.406,6.406,0,0,1,532.431,413.107Z" transform="translate(-471.455 -375.114)" fill="#2f2e41"/>
  <path id="Path_2270" data-name="Path 2270" d="M566.539,442.736a7.978,7.978,0,0,1-.763,3.556,2.942,2.942,0,0,0-.3.783,2.116,2.116,0,0,0,.622,1.6,6.594,6.594,0,0,0,2.819,1.961" transform="translate(-502.743 -402.514)" opacity="0.1"/>
  <path id="Path_2271" data-name="Path 2271" d="M665.258,343.188l.123.019a.41.41,0,0,1-.341-.469l1.269-8.015a.41.41,0,0,1,.469-.341l-.123-.019a.658.658,0,0,1,.547.753l-1.191,7.525a.658.658,0,0,1-.753.547Z" transform="translate(-588.483 -309.196)" fill="#2f2e41"/>
  <path id="Path_2272" data-name="Path 2272" d="M.242,0H.431V8.935H.242A.242.242,0,0,1,0,8.693V.242A.242.242,0,0,1,.242,0Z" transform="translate(77.889 25.122) rotate(8.995)" fill="#6c63ff"/>
  <rect id="Rectangle_1522" data-name="Rectangle 1522" width="0.083" height="0.729" rx="0.041" transform="translate(78.094 26.319) rotate(8.995)" fill="#464353"/>
  <path id="Path_2273" data-name="Path 2273" d="M672.653,354.822a3.882,3.882,0,0,0,.374-1.5,3.027,3.027,0,0,0-.417-1.334,6.816,6.816,0,0,0-1.088-1.493,1.994,1.994,0,0,0-1.943-.764,2.029,2.029,0,0,0-1.072,1.314,1.653,1.653,0,0,0-.139.855,2.861,2.861,0,0,0,.57.987,5.094,5.094,0,0,1,.609,1.686l.341,1.468.586,2.521c-.015-.066,1.088-1.111,1.219-1.334A17.5,17.5,0,0,0,672.653,354.822Z" transform="translate(-591.345 -322.372)" fill="#ffb9b9"/>
  <path id="Path_2274" data-name="Path 2274" d="M673.394,390.775l.832,1.73a4.156,4.156,0,0,1,.524,2.34l.049,5.19a7.565,7.565,0,0,1-.171,2.067,1.655,1.655,0,0,1-.287.617,1.928,1.928,0,0,1-.492.4c-1.575.984-3.616,1.543-5.28.719a7.312,7.312,0,0,1-1.083-.707,8.6,8.6,0,0,1-1.832-1.651c-.519-.69,1.868-3.315,1.519-4.1-.625-1.415-.279-4.77-1.25-5.974-.141-.175,1.143-.017,1.138-.243-.01-.455,1.081-1.113,1.5-1.286.719-.3,1.547-.9,1.667-1.667,1.529,2-2.764,8.063-.352,8.8a.249.249,0,0,0,.383-.213c.137-.573.185-1.163.286-1.744a9.936,9.936,0,0,1,1.048-3.022C671.881,391.491,672.806,389.554,673.394,390.775Z" transform="translate(-588.954 -355.556)" fill="#2f2e41"/>
  <path id="Path_2275" data-name="Path 2275" d="M698.295,435.284a1.7,1.7,0,0,0,.083,1.033,10.405,10.405,0,0,1,.379,3.02.11.11,0,0,1-.129.132,1.386,1.386,0,0,1-1.133-.269" transform="translate(-616.435 -396.097)" opacity="0.1"/>
  <path id="Path_2276" data-name="Path 2276" d="M154.446,645.622H142.915l-2.006-6.838a2.795,2.795,0,0,1,2.682-3.581h10.087a2.795,2.795,0,0,1,2.691,3.548Z" transform="translate(-137.074 -568.243)" fill="#3f3d56"/>
  <path id="Path_2277" data-name="Path 2277" d="M269.854,318.016a1.806,1.806,0,1,1,1.806-1.806A1.806,1.806,0,0,1,269.854,318.016Zm0-3.334a1.528,1.528,0,1,0,1.528,1.528A1.528,1.528,0,0,0,269.854,314.682Z" transform="translate(-246.647 -292.01)" fill="#3f3d56"/>
  <path id="Path_2278" data-name="Path 2278" d="M743.854,259.016a1.806,1.806,0,1,1,1.806-1.806,1.806,1.806,0,0,1-1.806,1.806Zm0-3.334a1.528,1.528,0,1,0,1.528,1.528A1.528,1.528,0,0,0,743.854,255.682Z" transform="translate(-654.797 -241.207)" fill="#3f3d56"/>
  <path id="Path_2279" data-name="Path 2279" d="M519.66,164.815h-3.612V161.2h3.612Zm-3.334-.278h3.056v-3.056h-3.056Z" transform="translate(-460.194 -160.092)" fill="#3f3d56"/>
</svg>
