<?xml version="1.0" encoding="UTF-8"?>
<svg width="88px" height="100px" viewBox="0 0 88 100" version="1.1" xmlns="http://www.w3.org/2000/svg" xmlns:xlink="http://www.w3.org/1999/xlink">
    <!-- Generator: sketchtool 61.2 (101010) - https://sketch.com -->
    <title>6E33B06D-4982-4309-88E4-9FE2566E932E</title>
    <desc>Created with sketchtool.</desc>
    <defs>
        <polygon id="path-1" points="0 99.8452 87.53 99.8452 87.53 -0.0002 0 -0.0002"></polygon>
    </defs>
    <g id="Page-1" stroke="none" stroke-width="1" fill="none" fill-rule="evenodd">
        <g id="Login---questions---Joining" transform="translate(-676.000000, -479.000000)">
            <g id="joining-time_icon" transform="translate(676.000000, 479.000000)">
                <path d="M71.81506,42.79324 L58.52546,42.79324 C50.86846,42.79324 44.66106,36.58584 44.66106,28.92884 L44.66106,14.85984 L49.15066,14.85984 C61.66786,14.85984 71.81506,25.00684 71.81506,37.52424 L71.81506,42.79324 Z" id="Fill-1" fill="#78CF96"></path>
                <path d="M44.66106,17.65116 C44.66106,17.65116 66.40986,20.69876 69.94886,43.12376 L73.52866,43.12376 C73.52866,43.12376 74.31366,18.64756 44.66106,13.61676 L44.66106,17.65116 Z" id="Fill-3" fill="#6AC486"></path>
                <path d="M75.28694,91.00916 L75.28694,63.49676 C78.27854,64.65516 82.43574,66.72776 83.52834,69.60496 C83.99854,70.84336 84.24354,72.23436 84.26914,73.56216 C84.35714,78.13176 84.30994,82.70396 84.30014,87.27516 C84.29494,89.67736 80.79014,90.99036 78.38914,91.00796 C77.38914,91.01536 76.38934,91.00916 75.28694,91.00916" id="Fill-5" fill="#EFE1A8"></path>
                <path d="M12.0593,62.93738 L12.0593,91.59858 C10.5563,91.59858 9.0047,91.78358 7.5193,91.54918 C5.8641,91.28778 3.1861,89.78558 3.1777,88.09678 C3.1519,82.91458 3.0217,77.72618 3.2241,72.55158 C3.3961,68.15478 7.3333,64.98738 11.3169,63.07378 C11.4629,63.00378 11.6163,62.94398 11.7723,62.90138 C11.8421,62.88258 11.9269,62.91858 12.0593,62.93738" id="Fill-7" fill="#EFE1A8"></path>
                <path d="M7.79006,63.7288 C7.79006,63.7288 6.57686,66.9846 6.73326,71.0566 L6.71926,88.1272 C6.71926,88.1272 6.42586,91.2122 7.51926,91.5492 C7.51926,91.5492 1.56506,91.4162 1.87826,86.248 L1.86646,71.8396 C1.86646,71.8396 3.05226,65.9542 7.79006,63.7288" id="Fill-9" fill="#E2D393"></path>
                <path d="M12.25402,43.12372 C7.38362,42.20032 3.68022,35.33452 4.61142,31.95952 C5.50882,28.70652 7.68742,24.01572 9.61942,21.25492 C11.75682,18.20032 18.39802,15.85392 23.79282,19.52152 C18.22782,25.07232 13.21062,35.33432 12.25402,43.12372" id="Fill-11" fill="#EFE1A8"></path>
                <path d="M20.18234,16.91502 C20.18234,16.91502 15.83934,17.20022 11.98794,24.34602 L7.58594,33.73742 C7.58594,33.73742 6.62694,36.22182 7.58594,41.71702 C7.58594,41.71702 1.92934,38.63742 5.33934,27.40842 L9.36154,20.32862 C9.36154,20.32862 10.99494,15.60902 20.18234,16.91502" id="Fill-13" fill="#E2D393"></path>
                <mask id="mask-2" fill="white">
                    <use xlink:href="#path-1"></use>
                </mask>
                <g id="Clip-16"></g>
                <polygon id="Fill-15" fill="#ED5858" mask="url(#mask-2)" points="27.3246 96.2662 60.204 96.2662 60.204 81.2134 27.3246 81.2134"></polygon>
                <path d="M24.80548,97.05058 C23.66888,97.05058 18.67188,97.09098 17.67948,97.04158 C15.98708,96.95738 14.82148,95.63898 14.81868,93.82518 C14.80988,88.13538 14.81568,80.44558 14.81568,74.75578 C14.81568,64.44098 14.65608,54.12298 14.85768,43.81218 C15.08548,32.15458 20.72788,22.26078 31.28968,17.34238 C33.61768,16.25858 39.90128,15.65898 42.57668,15.39098 C42.57668,18.24458 42.47948,22.63718 42.60928,25.41898 C42.70328,27.43038 42.47908,27.08658 42.99788,29.02118 C45.39608,37.96418 52.20308,44.23098 61.47208,44.33298 C64.20048,44.36318 69.72968,44.34038 72.45848,44.34178 C72.78248,44.34198 73.10628,44.34198 73.52878,44.34198 L73.52878,47.90458 C73.52878,62.41178 73.52878,78.91918 73.52878,93.42638 C73.52808,95.94878 72.41108,97.05358 69.86748,97.05578 C69.13848,97.05638 63.60948,97.05598 62.73828,97.05598 L62.73828,93.95438 C62.73828,89.39598 62.74288,86.83758 62.73628,82.27898 C62.73328,80.07738 61.54348,78.89018 59.34328,78.88958 C47.62908,78.88678 39.91468,78.88678 28.20068,78.88958 C25.99868,78.89018 24.80948,80.07858 24.80708,82.27758 C24.80208,86.80278 24.80548,89.32798 24.80548,93.85318 L24.80548,97.05058 Z" id="Fill-17" fill="#FFF5CC" mask="url(#mask-2)"></path>
                <path d="M75.21232,43.71404 C74.01912,34.09064 70.00152,25.92864 63.09752,19.04644 C65.22812,18.07004 67.56152,16.47384 69.68932,16.99104 C72.16392,17.59244 76.06272,18.33304 77.27652,20.58384 C79.09132,23.94844 80.86872,27.37524 82.20072,30.94744 C83.80432,35.24824 79.52092,41.92744 75.21232,43.71404" id="Fill-18" fill="#EFE1A8" mask="url(#mask-2)"></path>
                <path d="M35.24982,16.89042 C35.24982,16.89042 23.32762,24.09082 23.79282,40.21962 L23.79282,98.16402 L20.81922,98.16402 C17.12042,98.16402 14.12182,95.16542 14.12182,91.46682 L14.12182,38.79262 C14.12182,26.99542 23.46022,17.31502 35.24982,16.89042" id="Fill-19" fill="#F4E9BA" mask="url(#mask-2)"></path>
                <path d="M78.89612,63.49686 C78.89612,63.49686 81.86992,66.79166 81.58672,73.58886 L81.60572,88.73986 C81.60572,88.73986 81.60572,92.42246 80.25092,92.56406 C80.25092,92.56406 87.39252,91.57266 84.98512,78.96986 L85.4809317,69.34066 C85.4809317,69.34066 82.23992,63.30506 78.89612,63.49686" id="Fill-20" fill="#E2D393" mask="url(#mask-2)"></path>
                <path d="M67.03732,17.65116 C67.03732,17.65116 71.52112,17.73316 72.82132,19.77436 L79.80412,32.86176 C79.80412,32.86176 82.23872,36.24596 80.48492,40.30596 C80.48492,40.30596 85.88812,35.72116 83.12652,29.96896 L78.08352,18.67276 C78.08352,18.67276 72.80052,15.52796 66.43692,17.65116" id="Fill-21" fill="#E2D393" mask="url(#mask-2)"></path>
                <path d="M67.06858,96.25584 L65.54558,96.25604 L63.53818,96.25584 L63.53898,90.03424 C63.53998,86.78304 63.54098,83.53184 63.53638,80.28064 C63.53418,78.74524 62.87818,78.09004 61.34298,78.08964 C49.62898,78.08664 37.91498,78.08664 26.20098,78.08964 C24.66478,78.09004 24.00878,78.74484 24.00698,80.27904 C24.00358,83.45324 24.00418,86.62764 24.00498,89.80204 L24.00558,96.25064 L22.80558,96.25064 C22.44778,96.25064 22.10398,96.25464 21.76978,96.25864 C21.44578,96.26244 21.12958,96.26624 20.81678,96.26624 C20.41578,96.26624 20.01998,96.26004 19.61978,96.24004 C17.30498,96.12484 15.62238,94.26884 15.61858,91.82684 C15.61238,87.75044 15.61358,83.67384 15.61458,79.59724 L15.61558,74.75584 C15.61558,71.59764 15.60038,68.38484 15.58558,65.27784 C15.55218,58.23604 15.51778,50.95444 15.65778,43.78884 C15.89298,31.76224 21.65478,23.03684 32.78318,17.85464 C35.11978,16.76664 37.69538,16.09344 40.65718,15.79704 L41.97678,15.66484 L41.97678,16.99104 C41.97678,17.85484 41.96778,18.71324 41.95898,19.56744 C41.93838,21.56584 41.91878,23.45344 42.00798,25.36304 C42.09078,27.13244 42.24438,29.19904 42.75698,31.11024 C45.00818,39.50564 52.70958,45.43644 61.48518,45.53304 C63.35178,45.55344 65.25378,45.54944 67.09358,45.54524 C67.94878,45.54324 68.80418,45.54144 69.65918,45.54184 L71.92858,45.54184 L71.92858,91.42644 C71.92798,94.62804 70.29298,96.25304 67.06858,96.25584 L67.06858,96.25584 Z M27.65118,96.21384 L59.87698,96.21384 L59.87698,81.75924 L27.65118,81.75924 L27.65118,96.21384 Z M12.20238,40.24364 L12.02138,41.71704 L10.61858,41.23124 C6.81098,39.91264 4.51858,35.44764 5.61298,31.48124 C6.53518,28.13844 8.03358,24.97044 10.06658,22.06504 C12.52498,18.55164 17.35958,17.23504 21.31138,19.00324 L22.90458,19.71584 L21.66898,20.94824 C16.30238,26.30104 13.11738,32.79284 12.20238,40.24364 L12.20238,40.24364 Z M33.61618,7.48544 C33.72698,5.38344 35.52978,3.65604 37.63518,3.63524 C41.76978,3.59424 45.90758,3.59484 49.93378,3.63684 C51.94238,3.65764 53.65798,5.24204 53.92458,7.32224 C53.96418,7.63084 53.96078,7.91964 53.95798,8.17424 C53.95718,8.23944 53.95638,8.30464 53.95658,8.36964 C53.95798,9.24004 53.95778,10.11024 53.95758,11.01604 L53.95738,13.60964 L52.44158,13.19624 C46.61758,11.60704 40.94958,11.60944 35.11398,13.20284 L33.59778,13.61684 L33.59778,12.04524 C33.59778,11.56104 33.59218,11.08784 33.58658,10.62244 C33.57358,9.54584 33.56118,8.52884 33.61618,7.48544 L33.61618,7.48544 Z M71.71278,40.81964 L71.84758,42.20044 L70.46178,42.13504 C69.19578,42.07524 67.90698,42.05404 66.66078,42.03344 C63.87418,41.98744 60.99278,41.93984 58.20478,41.45724 C51.09778,40.22704 45.66918,33.62364 45.57698,26.09704 C45.55178,24.03324 45.55838,21.93864 45.56478,19.91324 C45.56778,18.98064 45.57078,18.04764 45.57078,17.11484 L45.57078,15.85384 L46.83018,15.91624 C57.67958,16.45404 70.27778,26.12824 71.71278,40.81964 L71.71278,40.81964 Z M66.19158,18.99564 C68.08498,18.12804 70.03138,17.95544 72.14218,18.46844 C74.75798,19.10424 76.62318,20.42584 77.68618,22.39644 C79.05538,24.93504 80.61178,27.90024 81.75598,30.96864 C83.25858,34.99864 81.16778,39.51044 76.99578,41.24024 L75.53938,41.84424 L75.34518,40.27944 C74.40558,32.69964 71.29778,26.37244 65.84438,20.93644 L64.61998,19.71584 L66.19158,18.99564 Z M77.18578,64.32124 C80.10958,65.45324 82.12158,67.42164 83.16558,70.17144 C83.60738,71.33464 83.85438,72.64904 83.87978,73.97244 C83.93918,77.05844 83.92698,80.19064 83.91498,83.21944 C83.91178,84.07104 83.90838,84.92264 83.90658,85.77404 C83.90078,88.48224 82.14178,90.24524 79.42518,90.26504 C79.09938,90.26744 78.77358,90.26824 78.44338,90.26824 C78.17638,90.26824 77.90658,90.26784 77.63118,90.26724 L75.55238,90.26624 L75.55238,63.68884 L77.18578,64.32124 Z M11.97998,65.59004 L11.97998,90.15104 L10.77998,90.15104 C10.42838,90.15104 10.07198,90.16424 9.69438,90.17824 C9.30318,90.19284 8.90638,90.20764 8.50478,90.20764 C7.97478,90.20764 7.43638,90.18184 6.89238,90.09604 C5.02078,89.80044 3.65498,88.12104 3.64498,86.10264 C3.63998,85.09524 3.63018,84.08724 3.62018,83.07944 C3.58918,79.90284 3.55698,76.61844 3.68358,73.37944 C3.83738,69.45164 5.90218,66.42244 9.65518,64.61964 C9.84718,64.52744 10.04078,64.45484 10.23118,64.40284 C10.54898,64.31624 10.83278,64.07924 10.95698,64.10584 L11.98798,63.72884 L11.97998,65.59004 Z M74.73578,95.38844 C75.25518,94.28764 76.03478,93.80704 77.25598,93.83244 C78.47518,93.85724 79.85778,93.88504 81.11478,93.68164 C84.75318,93.09244 87.43018,89.98144 87.48018,86.28484 C87.54758,81.30384 87.54658,77.19364 87.47718,73.35024 C87.37258,67.54864 83.28478,62.33264 77.53658,60.66584 C77.30858,60.59984 77.07898,60.53764 76.83518,60.47164 L75.57458,60.12604 L75.57458,46.01664 L76.19678,45.67484 C76.78538,45.35144 77.37218,45.05544 77.93938,44.76904 C79.11178,44.17724 80.21938,43.61824 81.16658,42.91004 C85.22278,39.87664 86.80698,34.72924 85.20218,29.79604 C84.14278,26.53924 82.64838,23.40244 80.76078,20.47344 C76.93878,14.54324 69.12458,12.83104 62.97158,16.57544 C61.91138,17.22044 61.08338,16.99084 60.32618,16.70004 C57.54578,15.63224 57.38558,13.38664 57.50698,11.79044 C57.65418,9.85784 57.60398,8.04144 57.35778,6.39204 C56.82578,2.82364 53.65118,0.09504 49.97338,0.04504 C45.48238,-0.01596 41.41318,-0.01516 37.53318,0.04764 C33.48278,0.11344 30.10818,3.48564 30.01058,7.56544 C29.96018,9.67444 29.98118,11.80224 30.00838,13.60564 C30.02538,14.73364 29.43898,15.32844 28.86318,15.76164 C26.74578,17.35504 24.94158,16.78684 23.45598,16.02084 C17.44638,12.92244 10.03658,15.04844 6.58678,20.86044 C4.94158,23.63204 3.55338,26.55404 2.46038,29.54504 C1.35138,32.57964 1.51378,35.83744 2.91718,38.71844 C4.37278,41.70664 6.96198,43.93224 10.20778,44.98564 C10.41258,45.05204 10.61858,45.11524 10.83038,45.18044 L11.99018,45.53984 L11.99018,59.68104 L11.31158,60.00844 C10.70958,60.29864 10.10738,60.56404 9.52498,60.82044 C8.30318,61.35864 7.14918,61.86704 6.14198,62.53684 C2.26278,65.11664 0.22358,68.79464 0.08098,73.46844 C-0.04542,77.61544 -0.00182,81.72724 0.06338,86.28704 C0.12218,90.41844 3.45458,93.74064 7.64958,93.85064 C7.74238,93.85304 7.83578,93.85404 7.92738,93.85504 C8.18598,93.85504 8.47538,93.83044 8.78158,93.80424 C9.63678,93.73124 10.60578,93.64884 11.48518,94.06904 C12.32578,94.47104 12.76398,95.27364 13.15058,95.98184 C13.30418,96.26304 13.44918,96.52864 13.59618,96.72644 C14.69658,98.20684 16.16278,99.16604 18.07878,99.65844 C18.28878,99.71244 18.47118,99.78244 18.63258,99.84524 L68.92798,99.84524 C68.96838,99.83084 69.00878,99.81644 69.04918,99.80204 C69.29158,99.71564 69.54218,99.62644 69.81078,99.54884 C72.11798,98.88224 73.72878,97.52144 74.73578,95.38844 L74.73578,95.38844 Z" id="Fill-22" fill="#000000" mask="url(#mask-2)"></path>
                <polygon id="Fill-23" fill="#DD4545" mask="url(#mask-2)" points="55.76672 81.75916 55.76672 96.26616 59.87712 96.21376 59.87712 81.75916"></polygon>
            </g>
        </g>
    </g>
</svg>