<?xml version="1.0" encoding="UTF-8"?>
<svg width="25px" height="23px" viewBox="0 0 25 23" version="1.1" xmlns="http://www.w3.org/2000/svg" xmlns:xlink="http://www.w3.org/1999/xlink">
    <!-- Generator: sketchtool 57 (101010) - https://sketch.com -->
    <title>04946AD2-4299-473C-A949-1BDD33234C89</title>
    <desc>Created with sketchtool.</desc>
    <g id="Website" stroke="none" stroke-width="1" fill="none" fill-rule="evenodd">
        <g id="school-profile-" transform="translate(-30.000000, -1156.000000)">
            <g id="preschool-cap" transform="translate(30.000000, 1156.000000)">
                <path d="M1.71875,-7.05213665e-13 L22.5520833,-7.05213665e-13 C23.5013227,-7.05213665e-13 24.2708333,0.769510586 24.2708333,1.71875 L24.2708333,16.3020833 C24.2708333,17.2513227 23.5013227,18.0208333 22.5520833,18.0208333 L1.71875,18.0208333 C0.769510586,18.0208333 4.85300689e-12,17.2513227 4.85300689e-12,16.3020833 L4.85300689e-12,1.71875 C4.85300689e-12,0.769510586 0.769510586,-7.05213665e-13 1.71875,-7.05213665e-13 Z M1.71875,1.35416667 C1.51739618,1.35416667 1.35416667,1.51739618 1.35416667,1.71875 L1.35416667,16.3020833 C1.35416667,16.5034371 1.51739618,16.6666667 1.71875,16.6666667 L22.5520833,16.6666667 C22.7534371,16.6666667 22.9166667,16.5034371 22.9166667,16.3020833 L22.9166667,1.71875 C22.9166667,1.51739618 22.7534371,1.35416667 22.5520833,1.35416667 L1.71875,1.35416667 Z" id="Rectangle-Copy-16" fill="#1A1A1A" fill-rule="nonzero"></path>
                <path d="M5.65104167,16.6666667 C6.09689654,16.6666667 6.45833333,17.0281035 6.45833333,17.4739583 L6.45833333,22.2135417 C6.45833333,22.6593965 6.09689654,23.0208333 5.65104167,23.0208333 C5.20518679,23.0208333 4.84375,22.6593965 4.84375,22.2135417 L4.84375,17.4739583 C4.84375,17.0281035 5.20518679,16.6666667 5.65104167,16.6666667 Z" id="Rectangle-Copy-17" fill="#1A1A1A" transform="translate(5.651042, 19.843750) rotate(31.000000) translate(-5.651042, -19.843750) "></path>
                <path d="M19.1927083,16.6666667 C19.6385632,16.6666667 20,17.0281035 20,17.4739583 L20,22.2135417 C20,22.6593965 19.6385632,23.0208333 19.1927083,23.0208333 C18.7468535,23.0208333 18.3854167,22.6593965 18.3854167,22.2135417 L18.3854167,17.4739583 C18.3854167,17.0281035 18.7468535,16.6666667 19.1927083,16.6666667 Z" id="Rectangle-Copy-17" fill="#1A1A1A" transform="translate(19.192708, 19.843750) scale(-1, 1) rotate(31.000000) translate(-19.192708, -19.843750) "></path>
                <path d="M5.675,5 L19.325,5 C19.6977922,5 20,5.30220779 20,5.675 C20,6.04779221 19.6977922,6.35 19.325,6.35 L5.675,6.35 C5.30220779,6.35 5,6.04779221 5,5.675 C5,5.30220779 5.30220779,5 5.675,5 Z" id="Rectangle-Copy-11" fill="#252627"></path>
                <path d="M5.675,8.5 L13.325,8.5 C13.6977922,8.5 14,8.80220779 14,9.175 C14,9.54779221 13.6977922,9.85 13.325,9.85 L5.675,9.85 C5.30220779,9.85 5,9.54779221 5,9.175 C5,8.80220779 5.30220779,8.5 5.675,8.5 Z" id="Rectangle-Copy-18" fill="#252627"></path>
                <path d="M5.675,12 L13.325,12 C13.6977922,12 14,12.3022078 14,12.675 C14,13.0477922 13.6977922,13.35 13.325,13.35 L5.675,13.35 C5.30220779,13.35 5,13.0477922 5,12.675 C5,12.3022078 5.30220779,12 5.675,12 Z" id="Rectangle-Copy-19" fill="#252627"></path>
            </g>
        </g>
    </g>
</svg>