<?xml version="1.0" encoding="UTF-8"?>
<svg width="23px" height="23px" viewBox="0 0 23 23" version="1.1" xmlns="http://www.w3.org/2000/svg" xmlns:xlink="http://www.w3.org/1999/xlink">
    <!-- Generator: sketchtool 57 (101010) - https://sketch.com -->
    <title>CE3C8FAA-4EB9-4698-9113-5101385773C9</title>
    <desc>Created with sketchtool.</desc>
    <g id="Website" stroke="none" stroke-width="1" fill="none" fill-rule="evenodd">
        <g id="school-profile-" transform="translate(-740.000000, -2757.000000)" stroke="#252627">
            <g id="sleeping-area" transform="translate(740.000000, 2757.000000)">
                <path d="M0.65,18.7089097 C1.0764402,18.7089097 1.73283054,18.7089097 3.59375,18.7089097 C7.1875,18.7089097 7.1875,18.7089097 11.5,18.7089097 C15.8125,18.7089097 15.8125,18.7089097 19.40625,18.7089097 C21.2671695,18.7089097 21.9235598,18.7089097 22.35,18.7089097 C22.35,16.9351367 22.35,16.7200474 22.35,14.5589097 C22.35,12.9589097 22.35,12.9589097 22.35,11.3589097 C22.35,9.50875582 20.8501539,8.00890973 19,8.00890973 L4,8.00890973 C2.14984609,8.00890973 0.65,9.50875582 0.65,11.3589097 C0.65,12.9589097 0.65,12.9589097 0.65,14.5589097 C0.65,16.7200474 0.65,16.9351367 0.65,18.7089097 Z" id="Rectangle" stroke-width="1.3" fill="#87FBAC"></path>
                <path d="M4.40754117,8.35 C4.71739614,8.35 5.21655626,8.35 6.25754117,8.35 C8.75754117,8.35 8.75754117,8.35 11.7575412,8.35 C14.7575412,8.35 14.7575412,8.35 17.2575412,8.35 C18.2985261,8.35 18.7976862,8.35 19.1075412,8.35 C19.1075412,7.21467049 19.1075412,7.00135036 19.1075412,5.5 C19.1075412,3.75 19.1075412,3.75 19.1075412,2 C19.1075412,1.25441559 18.5031256,0.65 17.7575412,0.65 L5.75754117,0.65 C5.01195675,0.65 4.40754117,1.25441559 4.40754117,2 C4.40754117,3.75 4.40754117,3.75 4.40754117,5.5 C4.40754117,7.00135036 4.40754117,7.21467049 4.40754117,8.35 Z" id="Rectangle" stroke-width="1.3" fill="#FFB3B3"></path>
                <path d="M19.4821981,18.9212371 L19.4821981,21.9212371" id="Line-19" stroke-width="1.6" stroke-linecap="round"></path>
                <path d="M3.5,18.8589097 L3.5,21.8589097" id="Line-19-Copy" stroke-width="1.6" stroke-linecap="round"></path>
                <path d="M8.49544426,8.24265425 C9.04997748,8.24265425 9.62877028,8.24265425 11.8454443,8.24265425 C14.0621182,8.24265425 14.640911,8.24265425 15.1954443,8.24265425 C15.1954443,7.81384815 15.1954443,7.61193 15.1954443,6.89265425 C15.1954443,5.89265425 15.1954443,5.89265425 15.1954443,4.89265425 C15.1954443,4.14706984 14.5910287,3.54265425 13.8454443,3.54265425 L9.84544426,3.54265425 C9.09985985,3.54265425 8.49544426,4.14706984 8.49544426,4.89265425 C8.49544426,5.89265425 8.49544426,5.89265425 8.49544426,6.89265425 C8.49544426,7.61193 8.49544426,7.81384815 8.49544426,8.24265425 Z" id="Rectangle" stroke-width="1.3" fill="#FFE47F"></path>
            </g>
        </g>
    </g>
</svg>