<?xml version="1.0" encoding="UTF-8"?>
<svg width="38px" height="141px" viewBox="0 0 38 141" version="1.1" xmlns="http://www.w3.org/2000/svg" xmlns:xlink="http://www.w3.org/1999/xlink">
    <!-- Generator: sketchtool 63 (101010) - https://sketch.com -->
    <title>26055E86-A534-4839-BF19-8CCB7677F876</title>
    <desc>Created with sketchtool.</desc>
    <g id="responsive" stroke="none" stroke-width="1" fill="none" fill-rule="evenodd">
        <g id="Kiddenz_provider-landing--responsive" transform="translate(-25.000000, -3428.000000)">
            <g id="step2" transform="translate(43.500000, 3500.500000) scale(-1, 1) rotate(90.000000) translate(-43.500000, -3500.500000) translate(-28.000000, 3482.000000)">
                <path d="M1,34 C7.24546706,25.7336366 12.1954904,20.194257 15.8500701,17.3818613 C44.3294478,-4.53455209 83.0552442,-5.09077962 131,12.1397245 L129.454764,16.7069597 C116.77129,12.805046 107.857371,10.4889277 102.713008,9.75860494 C78.8414071,6.36965812 59.0898646,7.75454677 48.0885819,9.75860494 C35.0541904,12.1330261 19.3579965,20.2134911 1,34 Z" id="Path-25" fill="#D6FFCB"></path>
                <path d="M71,21 C97.2628902,7.15984369 113.94104,9.67716576 130,16.6158639" id="Path-20" stroke="#666C78" stroke-width="2" stroke-linecap="round"></path>
                <path d="M0,37 C24.2832829,-2.82745058 80.0556743,-7.36120579 131,12.4078185" id="Path-19" stroke="#666C78" stroke-width="2" stroke-linecap="round"></path>
                <path d="M132.782159,8.25395274 C132.832106,9.51607355 134.246706,13.2076004 133.5,16.494319 C133.20638,17.7867225 132.039714,19.605137 130,21.9495624 C138.879872,22.5928719 136.942217,16.8935167 136.549436,15.6039744 C135.741447,12.9512614 134.32794,10.5346581 133.217192,8 L132.782159,8.25395274 Z" id="Path-26" fill="#D6FFCB"></path>
                <polyline id="Path-24" stroke="#666C78" stroke-width="2" stroke-linecap="round" transform="translate(131.953898, 16.652598) rotate(22.000000) translate(-131.953898, -16.652598) " points="127.24116 4.65259842 138.953898 17.4115483 124.953898 28.6525984"></polyline>
            </g>
        </g>
    </g>
</svg>