<svg width="18" height="17" viewBox="0 0 18 17" fill="none" xmlns="http://www.w3.org/2000/svg">
<path d="M11.0766 12.0093H10.0898C9.94423 12.0093 9.82617 12.1208 9.82617 12.2583C9.82617 12.3959 9.94423 12.5073 10.0898 12.5073H11.0766C11.2222 12.5073 11.3403 12.3959 11.3403 12.2583C11.3403 12.1208 11.2222 12.0093 11.0766 12.0093Z" fill="#666C78"/>
<path d="M16.8835 9.3432L15.4477 8.82015L14.7156 8.12876C14.6686 8.08437 14.608 8.06033 14.5462 8.05658V7.50643C14.8912 7.15899 15.1368 6.71902 15.2359 6.22336C15.2974 6.22598 15.3595 6.2213 15.4208 6.20948C15.7717 6.14165 16.0263 5.83422 16.0263 5.47854V5.29696C16.0263 5.09119 15.9379 4.90233 15.7941 4.7673C16.0269 3.57131 15.8351 2.59667 15.237 1.94432C14.6584 1.31336 13.7263 1.01178 12.5415 1.0723C11.4469 1.12819 10.7402 1.60386 10.5163 1.77787C10.3938 1.79162 10.185 1.83226 9.97373 1.95199C9.68087 2.11794 9.33181 2.46654 9.33181 3.18483C9.33181 3.81144 9.43784 4.33459 9.51462 4.6314C9.25727 4.7498 9.08511 5.00639 9.08511 5.29974V5.47851C9.08511 5.83418 9.33975 6.14161 9.69058 6.20945C9.75186 6.2213 9.81401 6.22595 9.8755 6.22333C9.97461 6.71898 10.2202 7.15896 10.5652 7.5064V8.05654C10.5034 8.0603 10.4427 8.08434 10.3958 8.12873L9.66372 8.82012L8.2279 9.34317C8.10369 9.38839 7.98504 9.44706 7.87528 9.51749C7.75483 9.59478 7.72354 9.74964 7.80535 9.8634C7.85636 9.93432 7.9393 9.9725 8.02367 9.9725C8.07468 9.9725 8.12622 9.95853 8.17161 9.92944C8.24815 9.88033 8.33094 9.83943 8.41767 9.80782L9.7502 9.32239L10.769 10.7658C10.8953 10.9447 11.0977 11.0595 11.3243 11.0807C11.3495 11.083 11.3747 11.0842 11.3998 11.0842C11.5309 11.0842 11.6582 11.0516 11.7709 10.9914L11.5522 15.6753C11.5458 15.8127 11.6585 15.929 11.804 15.9351C11.808 15.9352 11.8119 15.9353 11.8159 15.9353C11.9561 15.9353 12.0728 15.8309 12.0791 15.6972L12.282 11.3496H12.8294L13.0323 15.6972C13.0385 15.8309 13.1552 15.9353 13.2955 15.9353C13.2995 15.9353 13.3034 15.9352 13.3073 15.9351C13.4528 15.929 13.5656 15.8127 13.5592 15.6753L13.3405 10.9914C13.4532 11.0516 13.5804 11.0842 13.7116 11.0842C13.7366 11.0842 13.7618 11.083 13.787 11.0807C14.0136 11.0595 14.216 10.9447 14.3423 10.7658L15.3612 9.32239L16.6937 9.80782C16.8806 9.87588 17.0415 9.98449 17.168 10.12L16.2563 10.981C15.9269 11.2921 15.7456 11.7056 15.7456 12.1455V15.6863C15.7456 15.8238 15.8636 15.9353 16.0092 15.9353C16.1549 15.9353 16.2729 15.8238 16.2729 15.6863V12.1455C16.2729 11.8387 16.3994 11.5502 16.6292 11.3332L17.4293 10.5775C17.4614 10.6889 17.4764 10.8059 17.4714 10.9256L17.2671 15.6762C17.2612 15.8137 17.3744 15.9296 17.5199 15.9352C17.5235 15.9353 17.5272 15.9354 17.5308 15.9354C17.6714 15.9354 17.7883 15.8304 17.794 15.6965L17.9983 10.9457C18.0282 10.241 17.5802 9.59701 16.8835 9.3432ZM10.3917 6.12066C10.3452 5.88156 10.1107 5.70778 9.85771 5.72548C9.83771 5.72684 9.81711 5.72551 9.79636 5.72152C9.69153 5.70127 9.61246 5.59678 9.61246 5.47854V5.29971C9.61246 5.1842 9.6942 5.08014 9.79851 5.06284C9.88654 5.04823 9.97084 5.07874 10.0242 5.14445C10.0726 5.20405 10.1372 5.24669 10.2109 5.26767C10.3189 5.29848 10.438 5.28039 10.5295 5.21936C10.6944 5.10942 10.8399 4.97512 10.9619 4.82012C11.0488 4.70976 11.0245 4.55377 10.9077 4.47172C10.7908 4.38964 10.6256 4.41259 10.5387 4.52295C10.4779 4.60025 10.4091 4.67041 10.3334 4.7325C10.2498 4.66496 10.1521 4.61616 10.0475 4.5883C9.97974 4.34319 9.85915 3.81808 9.85915 3.18476C9.85915 2.80336 9.98364 2.53537 10.2291 2.38828C10.4207 2.2735 10.6235 2.26892 10.6233 2.26888C10.6907 2.26888 10.7563 2.24382 10.8052 2.20009C10.8117 2.19438 11.4599 1.62627 12.5699 1.56959C13.586 1.51779 14.3704 1.76004 14.8383 2.27031C15.3099 2.78463 15.4669 3.57424 15.2965 4.56253C15.2259 4.56017 15.1486 4.56522 15.0717 4.57734L14.8239 4.01548C14.7734 3.90086 14.641 3.83897 14.5138 3.87028C14.4893 3.87632 12.0543 4.4593 11.0333 3.25881C10.9422 3.15159 10.7762 3.13446 10.6627 3.22059C10.5491 3.30672 10.531 3.46344 10.6222 3.57068C11.6648 4.79662 13.7336 4.52993 14.4222 4.39987L14.6138 4.83433C14.6961 5.0211 14.9069 5.1231 15.1146 5.07685C15.1998 5.05789 15.2813 5.05746 15.3119 5.06317C15.4185 5.08323 15.4989 5.18367 15.4989 5.29689V5.47851C15.4989 5.59678 15.4198 5.70124 15.315 5.72149C15.2943 5.72551 15.2736 5.72684 15.2537 5.72544C15.0007 5.70804 14.7662 5.8815 14.7197 6.12066C14.5279 7.10693 13.6178 7.82279 12.5557 7.82279C11.4936 7.82279 10.5835 7.10693 10.3917 6.12066ZM11.5614 10.5226C11.4945 10.5858 11.4168 10.5889 11.3763 10.5851C11.3359 10.5813 11.2603 10.5639 11.2079 10.4895L10.1815 9.03551L10.5942 8.64567L12.1699 9.94783L11.5614 10.5226ZM12.3052 10.8516L12.3212 10.5093L12.5556 10.2879L12.7901 10.5093L12.8061 10.8516H12.3052ZM12.5557 9.60478L11.0926 8.39568V7.91908C11.518 8.17458 12.0213 8.32084 12.5557 8.32084C13.0901 8.32084 13.5934 8.17458 14.0188 7.91908V8.39568L12.5557 9.60478ZM13.9036 10.4895C13.8511 10.5639 13.7755 10.5813 13.7351 10.5851C13.6946 10.5889 13.6169 10.5858 13.55 10.5226L12.9415 9.9478L14.5172 8.64564L14.9299 9.03548L13.9036 10.4895Z" fill="#666C78"/>
<path d="M8.36176 10.6484L7.07426 10.1176L6.37047 9.4529C6.32332 9.40834 6.26271 9.38444 6.20101 9.38072V8.98895C6.8025 8.61565 7.24266 8.02194 7.38409 7.31448C7.45335 7.3174 7.52328 7.31113 7.59219 7.29575C7.92958 7.22035 8.17445 6.91498 8.17445 6.56966V6.38811C8.17445 6.13583 8.04191 5.90889 7.83656 5.77574C7.89696 5.54976 7.92775 5.31857 7.92775 5.08584C7.92775 4.05415 7.33727 3.14545 6.44721 2.62369C6.43772 1.76263 5.65953 1.0647 4.70388 1.0647C3.74822 1.0647 2.97003 1.76263 2.96054 2.62369C2.07052 3.14545 1.48004 4.05419 1.48004 5.08584C1.48004 5.31787 1.51062 5.5484 1.57067 5.77375C1.36543 5.90623 1.23334 6.13424 1.23334 6.39083V6.56966C1.23334 6.91498 1.47821 7.22035 1.8156 7.29575C1.88451 7.31116 1.9544 7.3174 2.0237 7.31448C2.16513 8.02194 2.60532 8.61565 3.20681 8.98895V9.38072C3.14511 9.38444 3.0845 9.40834 3.03736 9.4529L2.33356 10.1176L1.0461 10.6484C0.391033 10.9184 -0.0287344 11.553 0.00153523 12.2275L0.157243 15.697C0.163255 15.8308 0.280009 15.9355 0.420494 15.9355C0.424256 15.9355 0.428052 15.9354 0.431849 15.9352C0.577362 15.9294 0.690284 15.8133 0.684132 15.6759L0.528389 12.2064C0.518369 11.9828 0.579893 11.7659 0.695557 11.5792L1.38761 12.3635C1.60632 12.6114 1.72673 12.9255 1.72673 13.2481V15.6864C1.72673 15.824 1.84478 15.9355 1.9904 15.9355C2.13602 15.9355 2.25408 15.824 2.25408 15.6864V13.2481C2.25408 12.8093 2.09021 12.3819 1.79272 12.0447L1.057 11.2109C1.11954 11.1701 1.18602 11.1341 1.25708 11.1048L2.37913 10.6422L3.17204 11.8577C3.25034 11.9778 3.37978 12.0592 3.52723 12.0811C3.55374 12.085 3.58031 12.087 3.60679 12.087C3.72734 12.087 3.84476 12.0466 3.93786 11.9716L4.44031 11.5667V15.6864C4.44031 15.8239 4.55837 15.9354 4.70398 15.9354C4.8496 15.9354 4.96766 15.8239 4.96766 15.6864V11.5667L5.47008 11.9716C5.56317 12.0467 5.68059 12.087 5.80114 12.087C5.82758 12.087 5.85419 12.0851 5.8807 12.0811C6.02815 12.0592 6.15759 11.9778 6.23589 11.8578L7.0288 10.6422L8.15085 11.1048C8.22187 11.1341 8.28839 11.1702 8.35093 11.2109L7.61521 12.0447C7.31772 12.3819 7.15386 12.8093 7.15386 13.2482V15.6865C7.15386 15.824 7.27191 15.9355 7.41753 15.9355C7.56315 15.9355 7.6812 15.824 7.6812 15.6865V13.2482C7.6812 12.9256 7.80165 12.6114 8.02032 12.3635L8.71237 11.5792C8.82804 11.7659 8.88956 11.9828 8.87954 12.2064L8.72383 15.6759C8.71768 15.8133 8.8306 15.9294 8.97612 15.9353C8.97991 15.9354 8.98368 15.9355 8.98747 15.9355C9.12796 15.9355 9.24471 15.8309 9.25072 15.697L9.40643 12.2275C9.43666 11.553 9.01686 10.9184 8.36176 10.6484ZM4.70395 1.56275C5.2649 1.56275 5.73818 1.90072 5.87814 2.35866C5.51413 2.2289 5.11805 2.15755 4.70395 2.15755C4.28984 2.15755 3.89377 2.2289 3.52976 2.35866C3.66972 1.90072 4.14296 1.56275 4.70395 1.56275ZM2.5399 7.21185C2.49342 6.97269 2.25861 6.79897 2.00598 6.81663C1.98358 6.81812 1.96045 6.81633 1.93711 6.81109C1.83656 6.78861 1.76073 6.68481 1.76073 6.56966V6.39083C1.76073 6.27532 1.84246 6.17126 1.94677 6.15396C2.0348 6.13935 2.11907 6.1699 2.17237 6.23554C2.22078 6.29517 2.28536 6.33781 2.35916 6.35886C2.46712 6.38967 2.58627 6.37157 2.67774 6.31051C2.84013 6.20227 2.98371 6.07032 3.10451 5.91838C3.19194 5.80841 3.16842 5.65229 3.05198 5.56975C2.93551 5.48717 2.77024 5.50939 2.68281 5.61935C2.62301 5.69456 2.55568 5.76293 2.48164 5.82365C2.36883 5.73254 2.23049 5.6755 2.08374 5.6582C2.03322 5.47064 2.00738 5.27882 2.00738 5.08588C2.00738 3.74586 3.21704 2.65563 4.70395 2.65563C6.19082 2.65563 7.40048 3.74583 7.40048 5.08588C7.40048 5.27846 7.37478 5.46987 7.32443 5.65711C7.25504 5.66232 7.18451 5.67304 7.11923 5.68905L6.92101 5.53512C6.82142 5.45775 6.69605 5.41904 6.56917 5.42618C6.18161 5.44779 4.19675 5.4973 3.17841 4.34627C3.08503 4.24075 2.91878 4.22668 2.80701 4.31486C2.69525 4.40305 2.68038 4.5601 2.77376 4.66562C3.276 5.2333 4.01263 5.61716 4.96316 5.80655C5.69093 5.95155 6.33788 5.93747 6.59135 5.92383L6.90059 6.16399C6.9857 6.2301 7.10506 6.23943 7.20037 6.18703C7.24509 6.16402 7.39485 6.14204 7.46021 6.15436C7.56684 6.17438 7.64721 6.27485 7.64721 6.38811V6.56966C7.64721 6.68485 7.57137 6.78864 7.47083 6.81109C7.44752 6.8163 7.42435 6.81819 7.40195 6.8166C7.14946 6.79927 6.91451 6.97269 6.868 7.21182C6.67619 8.19812 5.76609 8.91398 4.70398 8.91398C3.64184 8.91398 2.73171 8.19812 2.5399 7.21185ZM3.61062 11.5806L2.81756 10.3648L3.22383 9.98113L4.31572 11.0124L3.61062 11.5806ZM4.70395 10.6747L3.73419 9.75877V9.24359C4.03693 9.35243 4.36406 9.41203 4.70395 9.41203C5.04384 9.41203 5.37097 9.35243 5.6737 9.24362V9.75877L4.70395 10.6747ZM5.79728 11.5806L5.09218 11.0124L6.18407 9.98113L6.59033 10.3648L5.79728 11.5806Z" fill="#666C78"/>
<path d="M3.71661 13.1077H2.97656C2.83095 13.1077 2.71289 13.2192 2.71289 13.3567C2.71289 13.4942 2.83095 13.6057 2.97656 13.6057H3.71661C3.86222 13.6057 3.98028 13.4942 3.98028 13.3567C3.98028 13.2192 3.86222 13.1077 3.71661 13.1077Z" fill="#666C78"/>
</svg>
