<?xml version="1.0" encoding="UTF-8"?>
<svg width="23px" height="25px" viewBox="0 0 23 25" version="1.1" xmlns="http://www.w3.org/2000/svg" xmlns:xlink="http://www.w3.org/1999/xlink">
    <!-- Generator: sketchtool 57 (101010) - https://sketch.com -->
    <title>27A2018A-485A-4D1C-B55D-E38B1C841284</title>
    <desc>Created with sketchtool.</desc>
    <g id="Website" stroke="none" stroke-width="1" fill="none" fill-rule="evenodd">
        <g id="school-profile-" transform="translate(-448.000000, -2930.000000)" stroke="#252627">
            <g id="weekend-care" transform="translate(448.000000, 2931.000000)">
                <rect id="Rectangle-Copy-5" stroke-width="1.3" fill="#6AD3DE" x="0.65" y="1.11015879" width="21.7" height="21.7" rx="2"></rect>
                <path d="M4.37189327,0 L4.37189327,1" id="Line-19-Copy-4" stroke-width="1.6" stroke-linecap="round"></path>
                <path d="M16,0 L16,1" id="Line-19-Copy-4" stroke-width="1.6" stroke-linecap="round"></path>
                <path d="M19,0 L19,1" id="Line-19-Copy-4" stroke-width="1.6" stroke-linecap="round"></path>
                <path d="M8,0 L8,1" id="Line-19-Copy-4" stroke-width="1.6" stroke-linecap="round"></path>
                <path d="M12,0 L12,1" id="Line-19-Copy-4" stroke-width="1.6" stroke-linecap="round"></path>
                <path d="M0.65,3.81015879 C1.0764402,3.81015879 1.73283054,3.81015879 3.59375,3.81015879 C7.1875,3.81015879 7.1875,3.81015879 11.5,3.81015879 C15.8125,3.81015879 15.8125,3.81015879 19.40625,3.81015879 C21.2671695,3.81015879 21.9235598,3.81015879 22.35,3.81015879 C22.35,3.72159346 22.35,3.61478556 22.35,3.46015879 C22.35,2.96015879 22.35,2.96015879 22.35,2.46015879 C22.35,1.71457438 21.7455844,1.11015879 21,1.11015879 L2,1.11015879 C1.25441559,1.11015879 0.65,1.71457438 0.65,2.46015879 C0.65,2.96015879 0.65,2.96015879 0.65,3.46015879 C0.65,3.61478556 0.65,3.72159346 0.65,3.81015879 Z" id="Rectangle" stroke-width="1.3" fill="#FFE47F"></path>
                <g id="Group-15" transform="translate(9.000000, 7.000000)" stroke-linecap="round" stroke-width="1.4">
                    <path d="M2.7000624e-13,1.38242225 L1.25078257,2.6768499" id="Line-15-Copy-5"></path>
                    <path d="M3.95197693,-2.55795385e-13 L1.33992548,2.60068728" id="Line-15-Copy-4"></path>
                </g>
                <rect id="Rectangle" stroke-width="1.6" fill="#6AD3DE" x="15.8" y="6.8" width="3.4" height="3.4" rx="1"></rect>
                <rect id="Rectangle" stroke-width="1.6" fill="#6AD3DE" x="15.8" y="12.8" width="3.4" height="3.4" rx="1"></rect>
            </g>
        </g>
    </g>
</svg>