<?xml version="1.0" encoding="UTF-8"?>
<svg width="10px" height="24px" viewBox="0 0 10 24" version="1.1" xmlns="http://www.w3.org/2000/svg" xmlns:xlink="http://www.w3.org/1999/xlink">
    <!-- Generator: sketchtool 57 (101010) - https://sketch.com -->
    <title>43580C99-298A-4E06-B8D7-1EF597326C71</title>
    <desc>Created with sketchtool.</desc>
    <g id="Website" stroke="none" stroke-width="1" fill="none" fill-rule="evenodd">
        <g id="Parenting-Articles---landing" transform="translate(-553.000000, -199.000000)" fill="#F8C53B" fill-rule="nonzero">
            <g id="Kiddenz-icons_Feeding" transform="translate(553.000000, 199.000000)">
                <path d="M2.57007018,23.9998713 L7.45550349,23.9998713 C8.86079011,23.9998713 10,22.8171383 10,21.3583281 L10,11.5983194 C9.99943367,10.7754569 9.77447808,9.96957174 9.35115339,9.27387894 C9.41058145,9.1933755 9.46579207,9.10960968 9.51654566,9.02294502 C9.89421099,8.29162513 9.85513193,7.40421145 9.4147658,6.71171158 C8.97164194,5.98648436 8.35313016,5.39450561 7.62089576,4.99479532 C6.87026929,4.50613453 6.69215453,4.33444291 6.75576694,3.95143851 C6.78027752,3.76469365 6.84085969,3.58500914 6.9338817,3.42315658 C7.46547343,2.46278744 7.25695126,1.24492581 6.43912173,0.533539633 C5.6212922,-0.177846544 4.42972643,-0.177846544 3.6118969,0.533539633 C2.79406736,1.24492581 2.5855452,2.46278744 3.11713693,3.42315658 C3.21015894,3.58500914 3.27074111,3.76469365 3.29525168,3.95143851 C3.29525168,4.33444291 3.18074934,4.50613453 2.43012287,4.99479532 C1.68856803,5.39072507 1.06094966,5.98301842 0.610807862,6.71171158 C0.167320896,7.39612468 0.118548416,8.27708832 0.483583036,9.00973797 C0.534336625,9.09640263 0.589547253,9.18016845 0.64897531,9.26067189 C0.223336568,9.96016059 -0.00171397836,10.7709668 0.0001286984,11.5983194 L0.0001286984,21.331914 C-0.00674292219,22.0416276 0.261810822,22.7243515 0.745265956,23.2262201 C1.22872109,23.7280888 1.8863959,24.006871 2.57007018,23.9998713 Z M3.02807955,6.03815213 C3.74053857,5.57590544 4.61838987,4.99479532 4.42755263,3.76653983 C4.38402544,3.46124166 4.28929435,3.1662242 4.14765802,2.89487465 C4.04343237,2.72002294 3.9863154,2.51934098 3.98226574,2.31376453 C3.98226574,1.72294637 4.44364575,1.24399362 5.01278683,1.24399362 C5.58192791,1.24399362 6.04330792,1.72294637 6.04330792,2.31376453 C6.03925826,2.51934098 5.9821413,2.72002294 5.87791565,2.89487465 C5.73627932,3.1662242 5.64154822,3.46124166 5.59802103,3.76653983 C5.40718379,4.99479532 6.28503509,5.57590544 6.99749411,6.03815213 C7.56694369,6.34417395 8.04939661,6.79947238 8.3969672,7.35885695 C8.58737681,7.63857851 8.65229447,7.98997028 8.57508195,8.32297147 L8.57508195,8.42862785 C8.48733833,8.58311001 8.33832854,8.68945607 8.16796251,8.71918291 L1.90850108,8.71918291 C1.73813506,8.68945607 1.58912527,8.58311001 1.50138164,8.42862785 C1.49683781,8.39356699 1.49683781,8.35803233 1.50138164,8.32297147 C1.42416913,7.98997028 1.48908679,7.63857851 1.6794964,7.35885695 C2.01296871,6.80626606 2.47725647,6.3515762 3.02807955,6.03815213 Z M4.12221305,12.3247071 L1.19604204,12.3247071 L1.19604204,11.5983194 C1.19604204,10.9939792 1.36392364,10.4024591 1.6794964,9.8946102 C1.81491809,9.90751725 1.95119415,9.90751725 2.08661584,9.8946102 L7.98984775,9.8946102 C8.12526944,9.90751725 8.26154551,9.90751725 8.3969672,9.8946102 C8.69466493,10.4080931 8.84474984,10.9992213 8.8295316,11.5983194 L8.8295316,21.331914 C8.8295316,21.7172139 8.68208754,22.086733 8.41963543,22.3591812 C8.15718331,22.6316294 7.80122186,22.7846893 7.43005852,22.7846893 L2.57007018,22.7846893 C1.80711748,22.7702867 1.19591592,22.1240564 1.19604204,21.331914 L1.19604204,20.4074206 L4.12221305,20.4074206 C4.44259264,20.4004165 4.70070019,20.1324784 4.70744725,19.7998964 C4.70744725,19.46437 4.44542897,19.1923721 4.12221305,19.1923721 L1.19604204,19.1923721 L1.19604204,16.973588 L4.12221305,16.973588 C4.44259264,16.966584 4.70070019,16.6986458 4.70744725,16.3660638 C4.70744725,16.2049384 4.64578882,16.0504122 4.53603612,15.9364793 C4.42628342,15.8225464 4.27742681,15.7585396 4.12221305,15.7585396 L1.19604204,15.7585396 L1.19604204,13.5397555 L4.12221305,13.5397555 C4.44259264,13.5327515 4.70070019,13.2648133 4.70744725,12.9322313 C4.70744725,12.5967049 4.44542897,12.3247071 4.12221305,12.3247071 L4.12221305,12.3247071 Z" id="Shape"></path>
            </g>
        </g>
    </g>
</svg>