<?xml version="1.0" encoding="UTF-8"?>
<svg width="25px" height="24px" viewBox="0 0 25 24" version="1.1" xmlns="http://www.w3.org/2000/svg" xmlns:xlink="http://www.w3.org/1999/xlink">
    <title>confetti</title>
    <g id="Articles" stroke="none" stroke-width="1" fill="none" fill-rule="evenodd">
        <g id="confetti" fill="#F8C53B" fill-rule="nonzero">
            <path d="M14.8748118,11.1757843 C14.7251516,11.0335482 14.482414,11.0335482 14.3327027,11.1757843 C14.1829915,11.3180204 14.1829915,11.548638 14.3327027,11.6908255 L19.0844115,16.205376 C19.2839583,16.3957363 19.2839583,16.7055089 19.085536,16.8948009 C18.8848136,17.0848213 18.5590166,17.0850641 18.3593164,16.8953351 L7.60586884,6.67852162 L7.47987424,6.558818 C7.27976516,6.36870048 7.27976516,6.05946207 7.47931199,5.86992729 C7.67962552,5.68034395 8.00567808,5.68034395 8.2059916,5.86987873 L13.0582405,10.4620788 C13.2082073,10.6039749 13.4508939,10.603635 13.6003495,10.461059 C13.7497541,10.3185315 13.7492941,10.0879624 13.5992761,9.94601774 L8.74697613,5.35381772 C8.24826241,4.8819475 7.43683673,4.88199606 6.93766299,5.35435189 C6.45729898,5.81073106 6.43956262,6.5425014 6.88409611,7.01951912 L5.34082836,10.581054 C5.34067502,10.5813453 5.34052168,10.5815881 5.34036834,10.5818795 C5.33331469,10.5955738 5.32753887,10.6095109 5.32242753,10.6235937 L4.32474451,12.9260795 L4.3246934,12.9261766 C4.31779309,12.939531 4.3121195,12.9531281 4.30711038,12.9668224 L0.16917165,22.5163549 C0.165798164,22.5240762 0.162731358,22.5318946 0.159971233,22.5398101 C0.000650675801,22.994004 -0.118801407,23.4995757 0.20331542,23.8057062 C0.352822199,23.9477966 0.54781993,24 0.762138536,24 C1.01300324,24 1.29034471,23.9284206 1.55173878,23.8457693 C1.5601725,23.8430984 1.56845287,23.8401847 1.57663102,23.8369797 L15.4749345,18.4000072 C15.4841861,18.396705 15.4933865,18.3932571 15.5023313,18.3892751 L17.8744544,17.4613171 C18.1152498,17.6637692 18.4179435,17.7653109 18.7211484,17.7652623 C19.0489899,17.7652623 19.3771892,17.6468699 19.627645,17.4098907 C20.124212,16.9361266 20.124212,16.1652158 19.6270828,15.690869 L14.8748118,11.1757843 Z M7.47036714,7.57996517 L14.8849322,14.6245112 L6.17653292,10.5659028 L7.47036714,7.57996517 Z M1.29719391,23.1585297 C0.993784595,23.2536613 0.838553112,23.2718718 0.765614249,23.2725031 C0.766738744,23.2044201 0.786264074,23.0608243 0.883277362,22.7818396 L2.13438076,19.89453 L5.56071833,21.490643 L1.29719391,23.1585297 Z M9.7943414,19.8345082 L7.30935984,18.6773408 C7.119269,18.5887164 6.88961636,18.6634037 6.79643658,18.8441003 C6.7032568,19.0246998 6.78181814,19.2428858 6.9719601,19.331413 L8.84766959,20.2048367 L6.50728792,21.120363 L2.42685179,19.2195278 L3.15056683,17.5493102 L5.30121545,18.5521497 C5.35554903,18.5774987 5.41310275,18.5894934 5.46983866,18.5894934 C5.61147397,18.5894934 5.74764014,18.5146119 5.81424094,18.3856816 C5.90752294,18.2050821 5.82906383,17.9868961 5.6390241,17.8982232 L3.44303787,16.8742595 L4.8682336,13.585105 L14.405846,18.0304556 L9.7943414,19.8345082 Z M15.3523134,17.6602242 L5.16075575,12.9101028 L5.88406188,11.240905 L16.561146,16.2170793 L17.2845543,16.9043675 L15.3523134,17.6602242 Z" id="Shape"></path>
            <path d="M24.6409425,9.01549757 C22.9782142,8.91929505 21.4152568,9.27135735 19.9952447,10.0611957 C18.7540546,10.7515093 17.7942132,11.6777493 17.0966849,12.40755 C16.9562402,12.5544879 16.9704786,12.7794509 17.1284789,12.9100623 C17.201406,12.9703846 17.2921949,13 17.3826266,13 C17.4881642,13 17.5932426,12.9596585 17.6688234,12.8805418 C19.260768,11.2149615 21.3286016,9.53808561 24.5935322,9.72607682 C24.803842,9.73889116 24.9861342,9.58910569 24.9992499,9.39285634 C25.0123656,9.196607 24.8519157,9.02769493 24.6409425,9.01549757 L24.6409425,9.01549757 Z" id="Path"></path>
            <path d="M11.3159815,6 C11.3911096,6 11.4665325,5.97440403 11.5268372,5.92244382 C12.7026512,4.90903765 14.0461981,3.46749547 13.9987798,1.29689283 C13.995116,1.1294475 13.8521873,0.996979272 13.676369,1.00005241 C13.5019825,1.00357033 13.3635597,1.14218482 13.3672235,1.30963016 C13.4090409,3.22245352 12.2470396,4.48668398 11.1048732,5.47109757 C10.9750413,5.58298389 10.9643027,5.77473124 11.080785,5.89935488 C11.1432374,5.96603379 11.229441,6 11.3159815,6 L11.3159815,6 Z" id="Path"></path>
            <path d="M15.1100943,10.4265478 C14.9539385,10.56576 14.9652558,10.7821502 15.1354048,10.9099134 C15.2156848,10.9702144 15.3169826,11 15.4180016,11 C15.5310069,11 15.6437334,10.9627338 15.7261319,10.8892049 C16.4997191,10.1995753 17.5498262,9.31919015 18.8144595,8.62641314 C19.006351,8.52131976 19.0577525,8.30880672 18.9292487,8.15180524 C18.8007449,7.99480376 18.5411172,7.95274817 18.3491699,8.05788716 C17.0108909,8.79098645 15.9151244,9.7088202 15.1100943,10.4265478 L15.1100943,10.4265478 Z" id="Path"></path>
            <path d="M13.1163456,7.35048078 C12.9732665,7.48687734 12.9603728,7.72180455 13.0875542,7.87525068 C13.1560436,7.9578717 13.2511524,8 13.3467233,8 C13.4286148,8 13.5108298,7.96902331 13.5768699,7.90607868 C14.3099654,7.20719501 15.2403955,6.24552989 15.9340703,5.00160518 C16.7274291,3.57900692 17.0808289,2.01356896 16.9845186,0.348708212 C16.9726415,0.143815999 16.8077956,-0.0120091382 16.6171159,0.000728476368 C16.4260664,0.013466091 16.2807691,0.18985975 16.2926461,0.394751963 C16.4824015,3.67491075 14.7935044,5.75163756 13.1163456,7.35048078 L13.1163456,7.35048078 Z" id="Path"></path>
            <path d="M20.2903049,4.40442837 L21.1565281,4.84342707 L21.59603,5.71047057 C21.6941081,5.90258517 21.8299192,6 21.9998119,6 L22.000795,6 C22.171109,5.99967232 22.3067797,5.90178937 22.4038278,5.70962797 L22.8428615,4.84342707 L23.7086166,4.40461562 C23.9019637,4.30696673 24.0000417,4.17093237 24.0000017,4.00030428 C23.9999481,3.82967618 23.9019169,3.69364182 23.7090847,3.5962738 L22.8428615,3.1572751 L22.4040619,2.29154232 C22.3065456,2.09844469 22.1707345,2.00037449 22.0003268,2 C22.0000017,2 21.9997182,2 21.9993905,2 C21.8295915,2 21.693874,2.09722759 21.5955619,2.28990392 L21.1565281,3.15732191 L20.2908667,3.59608655 C20.0982218,3.69336095 20.0003311,3.82902082 20.0000017,3.99932123 C19.9995352,4.16962165 20.0969578,4.30579644 20.2903049,4.40442837 Z M21.5764613,3.73169961 C21.6431262,3.69790167 21.6972447,3.64374071 21.7309985,3.57708107 L21.9994374,3.04670622 L22.2683443,3.5772215 C22.3020982,3.64378752 22.3561698,3.69790167 22.422788,3.7316528 L22.9529711,4.00035109 L22.422788,4.26904937 C22.3561698,4.3028005 22.3020982,4.35691465 22.2683443,4.42348067 L21.9996246,4.95362146 L21.7309049,4.42348067 C21.6971511,4.35691465 21.6430326,4.3028005 21.5764613,4.26904937 L21.0462781,4.00035109 L21.5764613,3.73169961 Z" id="Shape"></path>
            <path d="M22.9994079,14 C22.4483357,14 22,14.4486009 22,15 C22,15.5513991 22.4483357,16 22.9994079,16 C23.5511145,16 24,15.5513991 24,15 C24,14.4486009 23.5511145,14 22.9994079,14 Z M22.9994079,15.365965 C22.7981644,15.365965 22.6344373,15.2017922 22.6344373,15 C22.6344373,14.7982078 22.7981644,14.634035 22.9994079,14.634035 C23.2012858,14.634035 23.3655627,14.7982078 23.3655627,15 C23.3655627,15.2017922 23.2012858,15.365965 22.9994079,15.365965 Z" id="Shape"></path>
            <path d="M8.99997898,3 C8.44860127,3 8,2.55140815 8,2 C8,1.44859185 8.44860127,1 8.99997898,1 C9.55139873,1 10,1.44859185 10,2 C10,2.55140815 9.55135669,3 8.99997898,3 L8.99997898,3 Z M8.99997898,1.63051702 C8.79627567,1.63051702 8.63053028,1.79625893 8.63053028,2 C8.63053028,2.20374107 8.79627567,2.36948298 8.99997898,2.36948298 C9.20372433,2.36948298 9.36946972,2.20374107 9.36946972,2 C9.36946972,1.79625893 9.2036823,1.63051702 8.99997898,1.63051702 Z" id="Shape"></path>
        </g>
    </g>
</svg>